[
  {
    "x": 40,
    "y": 45,
    "width": 318,
    "height": 180,
    "class": "link",
    "data": {
      "url": "http://www.meatymugs.com/"
    }
  },
  {
    "x": 40,
    "y": 260,
    "width": 318,
    "height": 180,
    "class": "link",
    "data": {
      "url": "http://organichudsonvalley.com/"
    }
  },
  {
    "x": 380,
    "y": 40,
    "width": 318,
    "height": 420,
    "class": "link",
    "data": {
      "url": "http://fishkillfarms.com/"
    }
  },
  {
    "x": 40,
    "y": 490,
    "width": 688,
    "height": 420,
    "class": "link",
    "data": {
      "url": "http://www.tierrafarm.com/"
    }
  }
]